Final_Exam
…
Question 2 - Import, extract and save data

a) Download the SPSS data file KiGGS03_06.sav from moodle and import it into R.

Answer:

#install.packages("haven") # Install haven package
library(haven)            # Load haven package

## Warning: package 'haven' was built under R version 4.1.2

data <- read_sav("KiGGS03_06.sav") # Reading data
data

## # A tibble: 17,640 x 1,206
##    PIDNR PPoint       OW   STALA wKiGGS wKGSLab wKGSVitD     sex    sexa    age2
##    <dbl>  <dbl> <dbl+lb> <dbl+l>  <dbl>   <dbl>    <dbl> <dbl+l> <dbl+l> <dbl+l>
##  1     1     82 1 [Ost]  2 [Kle~  0.788   0.778   NA     1 [Mn~ 1 [Jun~ 7 [12 ~
##  2     2    102 1 [Ost]  1 [Ln~  0.237   0.214    0.188 1 [Mn~ 1 [Jun~ 6 [10 ~
##  3     3    102 1 [Ost]  1 [Ln~  0.237   0.211    0.201 2 [Wei~ 2 [Md~ 5 [8 -~
##  4     4     78 1 [Ost]  1 [Ln~  0.364   0.342    0.407 2 [Wei~ 2 [Md~ 8 [14 ~
##  5     5    118 1 [Ost]  1 [Ln~  0.420  NA       NA     1 [Mn~ 1 [Jun~ 3 [4 -~
##  6     6     82 1 [Ost]  2 [Kle~  0.238  NA       NA     2 [Wei~ 2 [Md~ 1 [0 -~
##  7     7     97 1 [Ost]  1 [Ln~  0.206  NA       NA     1 [Mn~ 1 [Jun~ 1 [0 -~
##  8     8     82 1 [Ost]  2 [Kle~  0.274   0.359   NA     2 [Wei~ 2 [Md~ 3 [4 -~
##  9     9     21 2 [West] 3 [Mit~  0.779  NA       NA     2 [Wei~ 2 [Md~ 3 [4 -~
## 10    10     21 2 [West] 3 [Mit~  1.20    0.961   NA     1 [Mn~ 1 [Jun~ 7 [12 ~
## # ... with 17,630 more rows, and 1,196 more variables: agegrp <dbl+lbl>,
## #   AUSL <dbl+lbl>, migrant <dbl+lbl>, mbtyp <dbl+lbl>, efbtyp <dbl+lbl>,
## #   kfbtyp <dbl+lbl>, capi <dbl+lbl>, lab <dbl+lbl>, ffq <dbl+lbl>,
## #   e001B <dbl+lbl>, e004 <dbl+lbl>, e005 <dbl+lbl>, e005B1 <dbl+lbl>,
## #   e005B2 <dbl+lbl>, e005B3 <dbl+lbl>, e006 <dbl+lbl>, e006B1 <dbl+lbl>,
## #   e006B2 <dbl+lbl>, e006B3 <dbl+lbl>, e007m <dbl+lbl>, e007ma <dbl+lbl>,
## #   e007v <dbl+lbl>, e007va <dbl+lbl>, e008m <dbl+lbl>, e008v <dbl+lbl>, ...
…
